{
	"blackrock_internal":{
		"name":"Blackrock Intelligence",
		"logo":"graphics/BR/factions/brdy_blackrock_crest.png",
		"icon":"graphics/BR/factions/brdy_blackrock_crest.png",
		"image":"graphics/BR/factions/brdy_blackrock_logo.png",
		"sound":"ui_channel_comm_secure",
		"faction":"blackrock_driveyards",
		"type":"Intelligence Report",
		"shortType":"Intel",
	},
}